assignment 2
…
## 
## i Use `spec()` to retrieve the full column specification for this data.
## i Specify the column types or set `show_col_types = FALSE` to quiet this message.

Understanding our data

As the tibble is one of the features of the tidyverse, we use the as_tibble default to change the type of the data to make sure our dataset is in tibble format.

as_tibble(Q1)

## # A tibble: 96 x 3
##    participant condition   response_time
##          <dbl> <chr>               <dbl>
##  1           1 condition_a          984.
##  2           2 condition_a         1005.
##  3           3 condition_a          979.
##  4           4 condition_a         1040.
##  5           5 condition_a         1008.
##  6           6 condition_a          979.
##  7           7 condition_a         1012.
##  8           8 condition_a         1018.
##  9           9 condition_a         1014.
## 10          10 condition_a          992.
## # ... with 86 more rows
…
Normal_fil <- Q1_tided %>%
  filter(condition == "Normal") %>%
  select(RT) %>% 
  map(function(x) ifelse(((x-mean(x))/sd(x)) <= 3, x, NA))

Degrade_fil <- Q1_tided %>%
  filter(condition == "Degrade") %>%
  select(RT) %>% 
  map(function(x) ifelse(((x-mean(x))/sd(x)) <= 3, x, NA))

Q1_fil <- Q1_tided
Q1_fil$RT <- append(unlist(Normal_fil, use.names = FALSE), unlist(Degrade_fil, use.names = FALSE))
Q1_fil%>% filter(!is.na(RT))

## # A tibble: 96 x 3
##    participant condition    RT
##          <dbl> <fct>     <dbl>
##  1           1 Normal     984.
##  2           2 Normal    1005.
##  3           3 Normal     979.
##  4           4 Normal    1040.
##  5           5 Normal    1008.
##  6           6 Normal     979.
##  7           7 Normal    1012.
##  8           8 Normal    1018.
##  9           9 Normal    1014.
## 10          10 Normal     992.
## # ... with 86 more rows

Finally, lets view our data again to see what happened to our original data and is everything correct.

Q1_fil

## # A tibble: 96 x 3
##    participant condition    RT
##          <dbl> <fct>     <dbl>
##  1           1 Normal     984.
##  2           2 Normal    1005.
##  3           3 Normal     979.
##  4           4 Normal    1040.
##  5           5 Normal    1008.
##  6           6 Normal     979.
##  7           7 Normal    1012.
##  8           8 Normal    1018.
##  9           9 Normal    1014.
## 10          10 Normal     992.
## # ... with 86 more rows
…
## Rows: 96 Columns: 4

## -- Column specification --------------------------------------------------------
## Delimiter: ","
## chr (1): condition
## dbl (3): participant, response_time, caffeine

## 
## i Use `spec()` to retrieve the full column specification for this data.
## i Specify the column types or set `show_col_types = FALSE` to quiet this message.

as_tibble(Q2)

## # A tibble: 96 x 4
##    participant condition   response_time caffeine
##          <dbl> <chr>               <dbl>    <dbl>
##  1           1 condition_a          984.        1
##  2           2 condition_a         1005.        1
##  3           3 condition_a          979.        3
##  4           4 condition_a         1040.        2
##  5           5 condition_a         1008.        2
##  6           6 condition_a          979.        3
##  7           7 condition_a         1012.        2
##  8           8 condition_a         1018.        0
##  9           9 condition_a         1014.        1
## 10          10 condition_a          992.        1
## # ... with 86 more rows
…
Normal_fil2 <- Q2_tided %>%
  filter(condition == "Normal") %>%
  select(RT) %>% 
  map(function(x) ifelse(((x-mean(x))/sd(x)) <= 3, x, NA))

Degrade_fil2 <- Q2_tided %>%
  filter(condition == "Degrade") %>%
  select(RT) %>% 
  map(function(x) ifelse(((x-mean(x))/sd(x)) <= 3, x, NA))

Q2_fil <- Q2_tided
Q2_fil$RT <- append(as.numeric(unlist(Normal_fil2)), as.numeric(unlist(Degrade_fil2)))
Q2_fil%>% filter(!is.na(RT))

## # A tibble: 96 x 4
##    participant condition    RT caffeine
##          <dbl> <fct>     <dbl>    <dbl>
##  1           1 Normal     984.        1
##  2           2 Normal    1005.        1
##  3           3 Normal     979.        3
##  4           4 Normal    1040.        2
##  5           5 Normal    1008.        2
##  6           6 Normal     979.        3
##  7           7 Normal    1012.        2
##  8           8 Normal    1018.        0
##  9           9 Normal    1014.        1
## 10          10 Normal     992.        1
## # ... with 86 more rows
…
